%YAML 1.1
%TAG !u! tag:unity3d.com,2011:
--- !u!29 &1
OcclusionCullingSettings:
  m_ObjectHideFlags: 0
  serializedVersion: 2
  m_OcclusionBakeSettings:
    smallestOccluder: 5
    smallestHole: 0.25
    backfaceThreshold: 100
  m_SceneGUID: 00000000000000000000000000000000
  m_OcclusionCullingData: {fileID: 0}
--- !u!104 &2
RenderSettings:
  m_ObjectHideFlags: 0
  serializedVersion: 8
  m_Fog: 0
  m_FogColor: {r: 0.5, g: 0.5, b: 0.5, a: 1}
  m_FogMode: 3
  m_FogDensity: 0.01
  m_LinearFogStart: 0
  m_LinearFogEnd: 300
  m_AmbientSkyColor: {r: 0.212, g: 0.227, b: 0.259, a: 1}
  m_AmbientEquatorColor: {r: 0.114, g: 0.125, b: 0.133, a: 1}
  m_AmbientGroundColor: {r: 0.047, g: 0.043, b: 0.035, a: 1}
  m_AmbientIntensity: 1
  m_AmbientMode: 0
  m_SubtractiveShadowColor: {r: 0.42, g: 0.478, b: 0.627, a: 1}
  m_SkyboxMaterial: {fileID: 10304, guid: 0000000000000000f000000000000000, type: 0}
  m_HaloStrength: 0.5
  m_FlareStrength: 1
  m_FlareFadeSpeed: 3
  m_HaloTexture: {fileID: 0}
  m_SpotCookie: {fileID: 10001, guid: 0000000000000000e000000000000000, type: 0}
  m_DefaultReflectionMode: 0
  m_DefaultReflectionResolution: 128
  m_ReflectionBounces: 1
  m_ReflectionIntensity: 1
  m_CustomReflection: {fileID: 0}
  m_Sun: {fileID: 0}
  m_IndirectSpecularColor: {r: 0.37311947, g: 0.38074005, b: 0.35872722, a: 1}
--- !u!157 &4
LightmapSettings:
  m_ObjectHideFlags: 0
  serializedVersion: 9
  m_GIWorkflowMode: 1
  m_GISettings:
    serializedVersion: 2
    m_BounceScale: 1
    m_IndirectOutputScale: 1
    m_AlbedoBoost: 1
    m_TemporalCoherenceThreshold: 1
    m_EnvironmentLightingMode: 0
    m_EnableBakedLightmaps: 1
    m_EnableRealtimeLightmaps: 1
  m_LightmapEditorSettings:
    serializedVersion: 8
    m_Resolution: 2
    m_BakeResolution: 40
    m_TextureWidth: 1024
    m_TextureHeight: 1024
    m_AO: 0
    m_AOMaxDistance: 1
    m_CompAOExponent: 0
    m_CompAOExponentDirect: 0
    m_Padding: 2
    m_LightmapParameters: {fileID: 0}
    m_LightmapsBakeMode: 1
    m_TextureCompression: 1
    m_FinalGather: 0
    m_FinalGatherFiltering: 1
    m_FinalGatherRayCount: 1024
    m_ReflectionCompression: 2
    m_MixedBakeMode: 1
    m_BakeBackend: 0
    m_PVRSampling: 1
    m_PVRDirectSampleCount: 32
    m_PVRSampleCount: 500
    m_PVRBounces: 2
    m_PVRFiltering: 0
    m_PVRFilteringMode: 1
    m_PVRCulling: 1
    m_PVRFilteringGaussRadiusDirect: 1
    m_PVRFilteringGaussRadiusIndirect: 5
    m_PVRFilteringGaussRadiusAO: 2
    m_PVRFilteringAtrousColorSigma: 1
    m_PVRFilteringAtrousNormalSigma: 1
    m_PVRFilteringAtrousPositionSigma: 1
  m_LightingDataAsset: {fileID: 112000001, guid: 2a95e76a0ba8ac649ab2c855c45c257c,
    type: 2}
  m_ShadowMaskMode: 2
--- !u!196 &5
NavMeshSettings:
  serializedVersion: 2
  m_ObjectHideFlags: 0
  m_BuildSettings:
    serializedVersion: 2
    agentTypeID: 0
    agentRadius: 0.5
    agentHeight: 2
    agentSlope: 45
    agentClimb: 0.4
    ledgeDropHeight: 0
    maxJumpAcrossDistance: 0
    minRegionArea: 2
    manualCellSize: 0
    cellSize: 0.16666667
    manualTileSize: 0
    tileSize: 256
    accuratePlacement: 0
  m_NavMeshData: {fileID: 0}
--- !u!1001 &10226140
Prefab:
  m_ObjectHideFlags: 0
  serializedVersion: 2
  m_Modification:
    m_TransformParent: {fileID: 577085388}
    m_Modifications:
    - target: {fileID: 495540, guid: d7a9e895e6da348328209b58b7889ae6, type: 2}
      propertyPath: m_LocalPosition.x
      value: 0
      objectReference: {fileID: 0}
    - target: {fileID: 495540, guid: d7a9e895e6da348328209b58b7889ae6, type: 2}
      propertyPath: m_LocalPosition.y
      value: 0
      objectReference: {fileID: 0}
    - target: {fileID: 495540, guid: d7a9e895e6da348328209b58b7889ae6, type: 2}
      propertyPath: m_LocalPosition.z
      value: 0
      objectReference: {fileID: 0}
    - target: {fileID: 495540, guid: d7a9e895e6da348328209b58b7889ae6, type: 2}
      propertyPath: m_LocalRotation.x
      value: 0
      objectReference: {fileID: 0}
    - target: {fileID: 495540, guid: d7a9e895e6da348328209b58b7889ae6, type: 2}
      propertyPath: m_LocalRotation.y
      value: 0
      objectReference: {fileID: 0}
    - target: {fileID: 495540, guid: d7a9e895e6da348328209b58b7889ae6, type: 2}
      propertyPath: m_LocalRotation.z
      value: 0
      objectReference: {fileID: 0}
    - target: {fileID: 495540, guid: d7a9e895e6da348328209b58b7889ae6, type: 2}
      propertyPath: m_LocalRotation.w
      value: 1
      objectReference: {fileID: 0}
    - target: {fileID: 495540, guid: d7a9e895e6da348328209b58b7889ae6, type: 2}
      propertyPath: m_RootOrder
      value: 0
      objectReference: {fileID: 0}
    - target: {fileID: 106802, guid: d7a9e895e6da348328209b58b7889ae6, type: 2}
      propertyPath: m_Name
      value: Cover (1)
      objectReference: {fileID: 0}
    - target: {fileID: 106802, guid: d7a9e895e6da348328209b58b7889ae6, type: 2}
      propertyPath: m_TagString
      value: MenuItem
      objectReference: {fileID: 0}
    - target: {fileID: 495540, guid: d7a9e895e6da348328209b58b7889ae6, type: 2}
      propertyPath: m_LocalScale.x
      value: 1.29999995
      objectReference: {fileID: 0}
    - target: {fileID: 495540, guid: d7a9e895e6da348328209b58b7889ae6, type: 2}
      propertyPath: m_LocalScale.y
      value: 1.29999995
      objectReference: {fileID: 0}
    m_RemovedComponents: []
  m_ParentPrefab: {fileID: 100100000, guid: d7a9e895e6da348328209b58b7889ae6, type: 2}
  m_RootGameObject: {fileID: 1207617610}
  m_IsPrefabParent: 0
--- !u!1 &40052057
GameObject:
  m_ObjectHideFlags: 0
  m_PrefabParentObject: {fileID: 0}
  m_PrefabInternal: {fileID: 0}
  serializedVersion: 5
  m_Component:
  - component: {fileID: 40052059}
  - component: {fileID: 40052058}
  m_Layer: 0
  m_Name: Directional Light
  m_TagString: Untagged
  m_Icon: {fileID: 0}
  m_NavMeshLayer: 0
  m_StaticEditorFlags: 0
  m_IsActive: 1
--- !u!108 &40052058
Light:
  m_ObjectHideFlags: 0
  m_PrefabParentObject: {fileID: 0}
  m_PrefabInternal: {fileID: 0}
  m_GameObject: {fileID: 40052057}
  m_Enabled: 1
  serializedVersion: 8
  m_Type: 1
  m_Color: {r: 1, g: 0.95686275, b: 0.8392157, a: 1}
  m_Intensity: 0.4
  m_Range: 10
  m_SpotAngle: 30
  m_CookieSize: 10
  m_Shadows:
    m_Type: 2
    m_Resolution: -1
    m_CustomResolution: -1
    m_Strength: 1
    m_Bias: 0.05
    m_NormalBias: 0.4
    m_NearPlane: 0.2
  m_Cookie: {fileID: 0}
  m_DrawHalo: 0
  m_Flare: {fileID: 0}
  m_RenderMode: 0
  m_CullingMask:
    serializedVersion: 2
    m_Bits: 4294967295
  m_Lightmapping: 4
  m_AreaSize: {x: 1, y: 1}
  m_BounceIntensity: 1
  m_ColorTemperature: 6570
  m_UseColorTemperature: 0
  m_ShadowRadius: 0
  m_ShadowAngle: 0
--- !u!4 &40052059
Transform:
  m_ObjectHideFlags: 0
  m_PrefabParentObject: {fileID: 0}
  m_PrefabInternal: {fileID: 0}
  m_GameObject: {fileID: 40052057}
  m_LocalRotation: {x: 0, y: 0, z: 0, w: 1}
  m_LocalPosition: {x: 0, y: 3, z: 0}
  m_LocalScale: {x: 1, y: 1, z: 1}
  m_Children: []
  m_Father: {fileID: 0}
  m_RootOrder: 1
  m_LocalEulerAnglesHint: {x: 0, y: 0, z: 0}
--- !u!1001 &98036471
Prefab:
  m_ObjectHideFlags: 0
  serializedVersion: 2
  m_Modification:
    m_TransformParent: {fileID: 577085388}
    m_Modifications:
    - target: {fileID: 495540, guid: d7a9e895e6da348328209b58b7889ae6, type: 2}
      propertyPath: m_LocalPosition.x
      value: 0
      objectReference: {fileID: 0}
    - target: {fileID: 495540, guid: d7a9e895e6da348328209b58b7889ae6, type: 2}
      propertyPath: m_LocalPosition.y
      value: 0
      objectReference: {fileID: 0}
    - target: {fileID: 495540, guid: d7a9e895e6da348328209b58b7889ae6, type: 2}
      propertyPath: m_LocalPosition.z
      value: 0
      objectReference: {fileID: 0}
    - target: {fileID: 495540, guid: d7a9e895e6da348328209b58b7889ae6, type: 2}
      propertyPath: m_LocalRotation.x
      value: 0
      objectReference: {fileID: 0}
    - target: {fileID: 495540, guid: d7a9e895e6da348328209b58b7889ae6, type: 2}
      propertyPath: m_LocalRotation.y
      value: 0
      objectReference: {fileID: 0}
    - target: {fileID: 495540, guid: d7a9e895e6da348328209b58b7889ae6, type: 2}
      propertyPath: m_LocalRotation.z
      value: 0
      objectReference: {fileID: 0}
    - target: {fileID: 495540, guid: d7a9e895e6da348328209b58b7889ae6, type: 2}
      propertyPath: m_LocalRotation.w
      value: 1
      objectReference: {fileID: 0}
    - target: {fileID: 495540, guid: d7a9e895e6da348328209b58b7889ae6, type: 2}
      propertyPath: m_RootOrder
      value: 4
      objectReference: {fileID: 0}
    - target: {fileID: 106802, guid: d7a9e895e6da348328209b58b7889ae6, type: 2}
      propertyPath: m_Name
      value: Cover (3)
      objectReference: {fileID: 0}
    - target: {fileID: 106802, guid: d7a9e895e6da348328209b58b7889ae6, type: 2}
      propertyPath: m_TagString
      value: MenuItem
      objectReference: {fileID: 0}
    - target: {fileID: 2360886, guid: d7a9e895e6da348328209b58b7889ae6, type: 2}
      propertyPath: m_Materials.Array.data[0]
      value: 
      objectReference: {fileID: 2100000, guid: 7c5b67068903f4c80bbf44071d5f62b9, type: 2}
    - target: {fileID: 495540, guid: d7a9e895e6da348328209b58b7889ae6, type: 2}
      propertyPath: m_LocalScale.x
      value: 1.29999995
      objectReference: {fileID: 0}
    - target: {fileID: 495540, guid: d7a9e895e6da348328209b58b7889ae6, type: 2}
      propertyPath: m_LocalScale.y
      value: 1.29999995
      objectReference: {fileID: 0}
    m_RemovedComponents: []
  m_ParentPrefab: {fileID: 100100000, guid: d7a9e895e6da348328209b58b7889ae6, type: 2}
  m_RootGameObject: {fileID: 765412245}
  m_IsPrefabParent: 0
--- !u!1 &160174367
GameObject:
  m_ObjectHideFlags: 0
  m_PrefabParentObject: {fileID: 0}
  m_PrefabInternal: {fileID: 0}
  serializedVersion: 5
  m_Component:
  - component: {fileID: 160174372}
  - component: {fileID: 160174371}
  - component: {fileID: 160174370}
  - component: {fileID: 160174369}
  - component: {fileID: 160174368}
  m_Layer: 0
  m_Name: Main Camera
  m_TagString: MainCamera
  m_Icon: {fileID: 0}
  m_NavMeshLayer: 0
  m_StaticEditorFlags: 0
  m_IsActive: 1
--- !u!81 &160174368
AudioListener:
  m_ObjectHideFlags: 0
  m_PrefabParentObject: {fileID: 0}
  m_PrefabInternal: {fileID: 0}
  m_GameObject: {fileID: 160174367}
  m_Enabled: 1
--- !u!124 &160174369
Behaviour:
  m_ObjectHideFlags: 0
  m_PrefabParentObject: {fileID: 0}
  m_PrefabInternal: {fileID: 0}
  m_GameObject: {fileID: 160174367}
  m_Enabled: 1
--- !u!92 &160174370
Behaviour:
  m_ObjectHideFlags: 0
  m_PrefabParentObject: {fileID: 0}
  m_PrefabInternal: {fileID: 0}
  m_GameObject: {fileID: 160174367}
  m_Enabled: 1
--- !u!20 &160174371
Camera:
  m_ObjectHideFlags: 0
  m_PrefabParentObject: {fileID: 0}
  m_PrefabInternal: {fileID: 0}
  m_GameObject: {fileID: 160174367}
  m_Enabled: 1
  serializedVersion: 2
  m_ClearFlags: 2
  m_BackGroundColor: {r: 1, g: 1, b: 1, a: 0.019607844}
  m_NormalizedViewPortRect:
    serializedVersion: 2
    x: 0
    y: 0
    width: 1
    height: 1
  near clip plane: 0.3
  far clip plane: 1000
  field of view: 60
  orthographic: 0
  orthographic size: 5
  m_Depth: -1
  m_CullingMask:
    serializedVersion: 2
    m_Bits: 4294967295
  m_RenderingPath: -1
  m_TargetTexture: {fileID: 0}
  m_TargetDisplay: 0
  m_TargetEye: 3
  m_HDR: 0
  m_AllowMSAA: 1
  m_ForceIntoRT: 0
  m_OcclusionCulling: 1
  m_StereoConvergence: 10
  m_StereoSeparation: 0.022
  m_StereoMirrorMode: 0
--- !u!4 &160174372
Transform:
  m_ObjectHideFlags: 0
  m_PrefabParentObject: {fileID: 0}
  m_PrefabInternal: {fileID: 0}
  m_GameObject: {fileID: 160174367}
  m_LocalRotation: {x: 0, y: 0, z: 0, w: 1}
  m_LocalPosition: {x: 0, y: -0.05, z: -1.83}
  m_LocalScale: {x: 1, y: 1, z: 1}
  m_Children: []
  m_Father: {fileID: 0}
  m_RootOrder: 0
  m_LocalEulerAnglesHint: {x: 0, y: 0, z: 0}
--- !u!1001 &265749492
Prefab:
  m_ObjectHideFlags: 0
  serializedVersion: 2
  m_Modification:
    m_TransformParent: {fileID: 1640265599}
    m_Modifications:
    - target: {fileID: 22444306, guid: 21c82a74592cf41c7a213678e023ad9d, type: 2}
      propertyPath: m_LocalPosition.x
      value: 0
      objectReference: {fileID: 0}
    - target: {fileID: 22444306, guid: 21c82a74592cf41c7a213678e023ad9d, type: 2}
      propertyPath: m_LocalPosition.y
      value: 0
      objectReference: {fileID: 0}
    - target: {fileID: 22444306, guid: 21c82a74592cf41c7a213678e023ad9d, type: 2}
      propertyPath: m_LocalPosition.z
      value: 0
      objectReference: {fileID: 0}
    - target: {fileID: 22444306, guid: 21c82a74592cf41c7a213678e023ad9d, type: 2}
      propertyPath: m_LocalRotation.x
      value: 0
      objectReference: {fileID: 0}
    - target: {fileID: 22444306, guid: 21c82a74592cf41c7a213678e023ad9d, type: 2}
      propertyPath: m_LocalRotation.y
      value: 0
      objectReference: {fileID: 0}
    - target: {fileID: 22444306, guid: 21c82a74592cf41c7a213678e023ad9d, type: 2}
      propertyPath: m_LocalRotation.z
      value: 0
      objectReference: {fileID: 0}
    - target: {fileID: 22444306, guid: 21c82a74592cf41c7a213678e023ad9d, type: 2}
      propertyPath: m_LocalRotation.w
      value: 1
      objectReference: {fileID: 0}
    - target: {fileID: 22444306, guid: 21c82a74592cf41c7a213678e023ad9d, type: 2}
      propertyPath: m_RootOrder
      value: 1
      objectReference: {fileID: 0}
    - target: {fileID: 22444306, guid: 21c82a74592cf41c7a213678e023ad9d, type: 2}
      propertyPath: m_AnchoredPosition.x
      value: 0
      objectReference: {fileID: 0}
    - target: {fileID: 22444306, guid: 21c82a74592cf41c7a213678e023ad9d, type: 2}
      propertyPath: m_AnchoredPosition.y
      value: 15
      objectReference: {fileID: 0}
    - target: {fileID: 22444306, guid: 21c82a74592cf41c7a213678e023ad9d, type: 2}
      propertyPath: m_SizeDelta.x
      value: 320
      objectReference: {fileID: 0}
    - target: {fileID: 22444306, guid: 21c82a74592cf41c7a213678e023ad9d, type: 2}
      propertyPath: m_SizeDelta.y
      value: 30
      objectReference: {fileID: 0}
    - target: {fileID: 22444306, guid: 21c82a74592cf41c7a213678e023ad9d, type: 2}
      propertyPath: m_AnchorMin.x
      value: .5
      objectReference: {fileID: 0}
    - target: {fileID: 22444306, guid: 21c82a74592cf41c7a213678e023ad9d, type: 2}
      propertyPath: m_AnchorMin.y
      value: 0
      objectReference: {fileID: 0}
    - target: {fileID: 22444306, guid: 21c82a74592cf41c7a213678e023ad9d, type: 2}
      propertyPath: m_AnchorMax.x
      value: .5
      objectReference: {fileID: 0}
    - target: {fileID: 22444306, guid: 21c82a74592cf41c7a213678e023ad9d, type: 2}
      propertyPath: m_AnchorMax.y
      value: 0
      objectReference: {fileID: 0}
    - target: {fileID: 22444306, guid: 21c82a74592cf41c7a213678e023ad9d, type: 2}
      propertyPath: m_Pivot.x
      value: .5
      objectReference: {fileID: 0}
    - target: {fileID: 22444306, guid: 21c82a74592cf41c7a213678e023ad9d, type: 2}
      propertyPath: m_Pivot.y
      value: .5
      objectReference: {fileID: 0}
    - target: {fileID: 11478384, guid: 21c82a74592cf41c7a213678e023ad9d, type: 2}
      propertyPath: m_RaycastTarget
      value: 0
      objectReference: {fileID: 0}
    m_RemovedComponents: []
  m_ParentPrefab: {fileID: 100100000, guid: 21c82a74592cf41c7a213678e023ad9d, type: 2}
  m_RootGameObject: {fileID: 466898420}
  m_IsPrefabParent: 0
--- !u!224 &265749493
RectTransform:
  m_ObjectHideFlags: 0
  m_PrefabParentObject: {fileID: 22462606, guid: 21c82a74592cf41c7a213678e023ad9d,
    type: 2}
  m_PrefabInternal: {fileID: 265749492}
  m_GameObject: {fileID: 466898420}
  m_LocalRotation: {x: 0, y: 0, z: 0, w: 1}
  m_LocalPosition: {x: 0, y: 0, z: 0}
  m_LocalScale: {x: 0.8, y: 0.8, z: 1}
  m_Children: []
  m_Father: {fileID: 1640265599}
  m_RootOrder: 1
  m_LocalEulerAnglesHint: {x: 0, y: 0, z: 0}
  m_AnchorMin: {x: 0.5, y: 0}
  m_AnchorMax: {x: 0.5, y: 0}
  m_AnchoredPosition: {x: 0, y: 15}
  m_SizeDelta: {x: 320, y: 30}
  m_Pivot: {x: 0.5, y: 0.5}
--- !u!1 &345837631
GameObject:
  m_ObjectHideFlags: 0
  m_PrefabParentObject: {fileID: 106802, guid: d7a9e895e6da348328209b58b7889ae6, type: 2}
  m_PrefabInternal: {fileID: 1177757491}
  serializedVersion: 5
  m_Component:
  - component: {fileID: 1349214177}
  - component: {fileID: 345837634}
  - component: {fileID: 345837633}
  - component: {fileID: 345837632}
  - component: {fileID: 1121430694}
  m_Layer: 0
  m_Name: Cover (2)
  m_TagString: MenuItem
  m_Icon: {fileID: 0}
  m_NavMeshLayer: 0
  m_StaticEditorFlags: 0
  m_IsActive: 1
--- !u!23 &345837632
MeshRenderer:
  m_ObjectHideFlags: 0
  m_PrefabParentObject: {fileID: 2360886, guid: d7a9e895e6da348328209b58b7889ae6,
    type: 2}
  m_PrefabInternal: {fileID: 1177757491}
  m_GameObject: {fileID: 345837631}
  m_Enabled: 1
  m_CastShadows: 1
  m_ReceiveShadows: 1
  m_MotionVectors: 1
  m_LightProbeUsage: 1
  m_ReflectionProbeUsage: 1
  m_Materials:
  - {fileID: 2100000, guid: 7590568b04edb48bb80021b140c0df4c, type: 2}
  m_StaticBatchInfo:
    firstSubMesh: 0
    subMeshCount: 0
  m_StaticBatchRoot: {fileID: 0}
  m_ProbeAnchor: {fileID: 0}
  m_LightProbeVolumeOverride: {fileID: 0}
  m_ScaleInLightmap: 1
  m_PreserveUVs: 0
  m_IgnoreNormalsForChartDetection: 0
  m_ImportantGI: 0
  m_SelectedEditorRenderState: 3
  m_MinimumChartSize: 4
  m_AutoUVMaxDistance: 0.5
  m_AutoUVMaxAngle: 89
  m_LightmapParameters: {fileID: 0}
  m_SortingLayerID: 0
  m_SortingLayer: 0
  m_SortingOrder: 0
--- !u!65 &345837633
BoxCollider:
  m_ObjectHideFlags: 0
  m_PrefabParentObject: {fileID: 6572758, guid: d7a9e895e6da348328209b58b7889ae6,
    type: 2}
  m_PrefabInternal: {fileID: 1177757491}
  m_GameObject: {fileID: 345837631}
  m_Material: {fileID: 0}
  m_IsTrigger: 0
  m_Enabled: 1
  serializedVersion: 2
  m_Size: {x: 1, y: 1, z: 1}
  m_Center: {x: 0, y: 0, z: 0}
--- !u!33 &345837634
MeshFilter:
  m_ObjectHideFlags: 0
  m_PrefabParentObject: {fileID: 3300506, guid: d7a9e895e6da348328209b58b7889ae6,
    type: 2}
  m_PrefabInternal: {fileID: 1177757491}
  m_GameObject: {fileID: 345837631}
  m_Mesh: {fileID: 10202, guid: 0000000000000000e000000000000000, type: 0}
--- !u!1 &466898420
GameObject:
  m_ObjectHideFlags: 0
  m_PrefabParentObject: {fileID: 136888, guid: 21c82a74592cf41c7a213678e023ad9d, type: 2}
  m_PrefabInternal: {fileID: 265749492}
  serializedVersion: 5
  m_Component:
  - component: {fileID: 265749493}
  - component: {fileID: 466898422}
  - component: {fileID: 466898421}
  m_Layer: 5
  m_Name: Instructions
  m_TagString: Untagged
  m_Icon: {fileID: 0}
  m_NavMeshLayer: 0
  m_StaticEditorFlags: 0
  m_IsActive: 1
--- !u!114 &466898421
MonoBehaviour:
  m_ObjectHideFlags: 0
  m_PrefabParentObject: {fileID: 11478384, guid: 21c82a74592cf41c7a213678e023ad9d,
    type: 2}
  m_PrefabInternal: {fileID: 265749492}
  m_GameObject: {fileID: 466898420}
  m_Enabled: 1
  m_EditorHideFlags: 0
  m_Script: {fileID: 708705254, guid: f5f67c52d1564df4a8936ccd202a3bd8, type: 3}
  m_Name: 
  m_EditorClassIdentifier: 
  m_Material: {fileID: 0}
  m_Color: {r: 0, g: 0, b: 0, a: 1}
  m_RaycastTarget: 0
  m_OnCullStateChanged:
    m_PersistentCalls:
      m_Calls: []
    m_TypeName: UnityEngine.UI.MaskableGraphic+CullStateChangedEvent, UnityEngine.UI,
      Version=1.0.0.0, Culture=neutral, PublicKeyToken=null
  m_FontData:
    m_Font: {fileID: 10102, guid: 0000000000000000e000000000000000, type: 0}
    m_FontSize: 18
    m_FontStyle: 0
    m_BestFit: 0
    m_MinSize: 10
    m_MaxSize: 40
    m_Alignment: 4
    m_AlignByGeometry: 0
    m_RichText: 1
    m_HorizontalOverflow: 0
    m_VerticalOverflow: 0
    m_LineSpacing: 1
  m_Text: '[Press Enter For Next Example]'
--- !u!222 &466898422
CanvasRenderer:
  m_ObjectHideFlags: 0
  m_PrefabParentObject: {fileID: 22220110, guid: 21c82a74592cf41c7a213678e023ad9d,
    type: 2}
  m_PrefabInternal: {fileID: 265749492}
  m_GameObject: {fileID: 466898420}
--- !u!1 &577085386
GameObject:
  m_ObjectHideFlags: 0
  m_PrefabParentObject: {fileID: 0}
  m_PrefabInternal: {fileID: 0}
  serializedVersion: 5
  m_Component:
  - component: {fileID: 577085388}
  - component: {fileID: 577085387}
  - component: {fileID: 577085390}
  - component: {fileID: 577085389}
  m_Layer: 0
  m_Name: Menu
  m_TagString: Untagged
  m_Icon: {fileID: 0}
  m_NavMeshLayer: 0
  m_StaticEditorFlags: 0
  m_IsActive: 1
--- !u!114 &577085387
MonoBehaviour:
  m_ObjectHideFlags: 0
  m_PrefabParentObject: {fileID: 0}
  m_PrefabInternal: {fileID: 0}
  m_GameObject: {fileID: 577085386}
  m_Enabled: 1
  m_EditorHideFlags: 0
  m_Script: {fileID: 11500000, guid: 9199e5573ffd14da69df1212c90868e9, type: 3}
  m_Name: 
  m_EditorClassIdentifier: 
  startingMenuItem: 1
  menuItemAngle: 0
  distanceBetweenMenus: 1.5
  zOffsetForCentredItem: 0.5
  menuItems:
  - {fileID: 2020438286}
  - {fileID: 1347007604}
  - {fileID: 1121430694}
  - {fileID: 1136611345}
  - {fileID: 658030695}
--- !u!4 &577085388
Transform:
  m_ObjectHideFlags: 0
  m_PrefabParentObject: {fileID: 0}
  m_PrefabInternal: {fileID: 0}
  m_GameObject: {fileID: 577085386}
  m_LocalRotation: {x: 0, y: 0, z: 0, w: 1}
  m_LocalPosition: {x: 0, y: 0, z: 0}
  m_LocalScale: {x: 1, y: 1, z: 1}
  m_Children:
  - {fileID: 721448914}
  - {fileID: 1375643291}
  - {fileID: 1349214177}
  - {fileID: 776186708}
  - {fileID: 1807605613}
  m_Father: {fileID: 0}
  m_RootOrder: 2
  m_LocalEulerAnglesHint: {x: 0, y: 0, z: 0}
--- !u!114 &577085389
MonoBehaviour:
  m_ObjectHideFlags: 0
  m_PrefabParentObject: {fileID: 0}
  m_PrefabInternal: {fileID: 0}
  m_GameObject: {fileID: 577085386}
  m_Enabled: 1
  m_EditorHideFlags: 0
  m_Script: {fileID: 11500000, guid: dc1c0e274f2fc4ed093ed8e84d2fe67c, type: 3}
  m_Name: 
  m_EditorClassIdentifier: 
  handleTouches: 1
  requireMenuItemToBeCentredForSelectiion: 1
--- !u!114 &577085390
MonoBehaviour:
  m_ObjectHideFlags: 0
  m_PrefabParentObject: {fileID: 0}
  m_PrefabInternal: {fileID: 0}
  m_GameObject: {fileID: 577085386}
  m_Enabled: 1
  m_EditorHideFlags: 0
  m_Script: {fileID: 11500000, guid: c760e94a8711a476bbd5b9403f193f90, type: 3}
  m_Name: 
  m_EditorClassIdentifier: 
  handleSwipes: 1
  handleFlicks: 1
  requiredForceForFlick: 7
  flickType: 0
  lockToClosest: 1
  maxForce: 15
--- !u!1001 &621822579
Prefab:
  m_ObjectHideFlags: 0
  serializedVersion: 2
  m_Modification:
    m_TransformParent: {fileID: 577085388}
    m_Modifications:
    - target: {fileID: 495540, guid: d7a9e895e6da348328209b58b7889ae6, type: 2}
      propertyPath: m_LocalPosition.x
      value: 0
      objectReference: {fileID: 0}
    - target: {fileID: 495540, guid: d7a9e895e6da348328209b58b7889ae6, type: 2}
      propertyPath: m_LocalPosition.y
      value: 0
      objectReference: {fileID: 0}
    - target: {fileID: 495540, guid: d7a9e895e6da348328209b58b7889ae6, type: 2}
      propertyPath: m_LocalPosition.z
      value: 0
      objectReference: {fileID: 0}
    - target: {fileID: 495540, guid: d7a9e895e6da348328209b58b7889ae6, type: 2}
      propertyPath: m_LocalRotation.x
      value: 0
      objectReference: {fileID: 0}
    - target: {fileID: 495540, guid: d7a9e895e6da348328209b58b7889ae6, type: 2}
      propertyPath: m_LocalRotation.y
      value: 0
      objectReference: {fileID: 0}
    - target: {fileID: 495540, guid: d7a9e895e6da348328209b58b7889ae6, type: 2}
      propertyPath: m_LocalRotation.z
      value: 0
      objectReference: {fileID: 0}
    - target: {fileID: 495540, guid: d7a9e895e6da348328209b58b7889ae6, type: 2}
      propertyPath: m_LocalRotation.w
      value: 1
      objectReference: {fileID: 0}
    - target: {fileID: 495540, guid: d7a9e895e6da348328209b58b7889ae6, type: 2}
      propertyPath: m_RootOrder
      value: 3
      objectReference: {fileID: 0}
    - target: {fileID: 106802, guid: d7a9e895e6da348328209b58b7889ae6, type: 2}
      propertyPath: m_TagString
      value: MenuItem
      objectReference: {fileID: 0}
    - target: {fileID: 2360886, guid: d7a9e895e6da348328209b58b7889ae6, type: 2}
      propertyPath: m_Materials.Array.data[0]
      value: 
      objectReference: {fileID: 2100000, guid: 40ea042fc477c4f3f8ee453fc657139f, type: 2}
    - target: {fileID: 495540, guid: d7a9e895e6da348328209b58b7889ae6, type: 2}
      propertyPath: m_LocalScale.x
      value: 1.29999995
      objectReference: {fileID: 0}
    - target: {fileID: 495540, guid: d7a9e895e6da348328209b58b7889ae6, type: 2}
      propertyPath: m_LocalScale.y
      value: 1.29999995
      objectReference: {fileID: 0}
    m_RemovedComponents: []
  m_ParentPrefab: {fileID: 100100000, guid: d7a9e895e6da348328209b58b7889ae6, type: 2}
  m_RootGameObject: {fileID: 631220931}
  m_IsPrefabParent: 0
--- !u!1 &631220931
GameObject:
  m_ObjectHideFlags: 0
  m_PrefabParentObject: {fileID: 106802, guid: d7a9e895e6da348328209b58b7889ae6, type: 2}
  m_PrefabInternal: {fileID: 621822579}
  serializedVersion: 5
  m_Component:
  - component: {fileID: 776186708}
  - component: {fileID: 631220934}
  - component: {fileID: 631220933}
  - component: {fileID: 631220932}
  - component: {fileID: 2020438286}
  m_Layer: 0
  m_Name: Default Menu Item
  m_TagString: MenuItem
  m_Icon: {fileID: 0}
  m_NavMeshLayer: 0
  m_StaticEditorFlags: 0
  m_IsActive: 1
--- !u!23 &631220932
MeshRenderer:
  m_ObjectHideFlags: 0
  m_PrefabParentObject: {fileID: 2360886, guid: d7a9e895e6da348328209b58b7889ae6,
    type: 2}
  m_PrefabInternal: {fileID: 621822579}
  m_GameObject: {fileID: 631220931}
  m_Enabled: 1
  m_CastShadows: 1
  m_ReceiveShadows: 1
  m_MotionVectors: 1
  m_LightProbeUsage: 1
  m_ReflectionProbeUsage: 1
  m_Materials:
  - {fileID: 2100000, guid: 40ea042fc477c4f3f8ee453fc657139f, type: 2}
  m_StaticBatchInfo:
    firstSubMesh: 0
    subMeshCount: 0
  m_StaticBatchRoot: {fileID: 0}
  m_ProbeAnchor: {fileID: 0}
  m_LightProbeVolumeOverride: {fileID: 0}
  m_ScaleInLightmap: 1
  m_PreserveUVs: 0
  m_IgnoreNormalsForChartDetection: 0
  m_ImportantGI: 0
  m_SelectedEditorRenderState: 3
  m_MinimumChartSize: 4
  m_AutoUVMaxDistance: 0.5
  m_AutoUVMaxAngle: 89
  m_LightmapParameters: {fileID: 0}
  m_SortingLayerID: 0
  m_SortingLayer: 0
  m_SortingOrder: 0
--- !u!65 &631220933
BoxCollider:
  m_ObjectHideFlags: 0
  m_PrefabParentObject: {fileID: 6572758, guid: d7a9e895e6da348328209b58b7889ae6,
    type: 2}
  m_PrefabInternal: {fileID: 621822579}
  m_GameObject: {fileID: 631220931}
  m_Material: {fileID: 0}
  m_IsTrigger: 0
  m_Enabled: 1
  serializedVersion: 2
  m_Size: {x: 1, y: 1, z: 1}
  m_Center: {x: 0, y: 0, z: 0}
--- !u!33 &631220934
MeshFilter:
  m_ObjectHideFlags: 0
  m_PrefabParentObject: {fileID: 3300506, guid: d7a9e895e6da348328209b58b7889ae6,
    type: 2}
  m_PrefabInternal: {fileID: 621822579}
  m_GameObject: {fileID: 631220931}
  m_Mesh: {fileID: 10202, guid: 0000000000000000e000000000000000, type: 0}
--- !u!114 &658030695
MonoBehaviour:
  m_ObjectHideFlags: 0
  m_PrefabParentObject: {fileID: 11431726, guid: d7a9e895e6da348328209b58b7889ae6,
    type: 2}
  m_PrefabInternal: {fileID: 1000856876}
  m_GameObject: {fileID: 992687515}
  m_Enabled: 1
  m_EditorHideFlags: 0
  m_Script: {fileID: 11500000, guid: 3160ba9731a344d29af7fcc2db11ebb5, type: 3}
  m_Name: 
  m_EditorClassIdentifier: 
--- !u!4 &721448914
Transform:
  m_ObjectHideFlags: 0
  m_PrefabParentObject: {fileID: 495540, guid: d7a9e895e6da348328209b58b7889ae6, type: 2}
  m_PrefabInternal: {fileID: 10226140}
  m_GameObject: {fileID: 1207617610}
  m_LocalRotation: {x: 0, y: 0, z: 0, w: 1}
  m_LocalPosition: {x: 0, y: 0, z: 0}
  m_LocalScale: {x: 1.3, y: 1.3, z: 0.001}
  m_Children: []
  m_Father: {fileID: 577085388}
  m_RootOrder: 0
  m_LocalEulerAnglesHint: {x: 0, y: 0, z: 0}
--- !u!1 &765412245
GameObject:
  m_ObjectHideFlags: 0
  m_PrefabParentObject: {fileID: 106802, guid: d7a9e895e6da348328209b58b7889ae6, type: 2}
  m_PrefabInternal: {fileID: 98036471}
  serializedVersion: 5
  m_Component:
  - component: {fileID: 1807605613}
  - component: {fileID: 765412248}
  - component: {fileID: 765412247}
  - component: {fileID: 765412246}
  - component: {fileID: 1136611345}
  m_Layer: 0
  m_Name: Cover (3)
  m_TagString: MenuItem
  m_Icon: {fileID: 0}
  m_NavMeshLayer: 0
  m_StaticEditorFlags: 0
  m_IsActive: 1
--- !u!23 &765412246
MeshRenderer:
  m_ObjectHideFlags: 0
  m_PrefabParentObject: {fileID: 2360886, guid: d7a9e895e6da348328209b58b7889ae6,
    type: 2}
  m_PrefabInternal: {fileID: 98036471}
  m_GameObject: {fileID: 765412245}
  m_Enabled: 1
  m_CastShadows: 1
  m_ReceiveShadows: 1
  m_MotionVectors: 1
  m_LightProbeUsage: 1
  m_ReflectionProbeUsage: 1
  m_Materials:
  - {fileID: 2100000, guid: 7c5b67068903f4c80bbf44071d5f62b9, type: 2}
  m_StaticBatchInfo:
    firstSubMesh: 0
    subMeshCount: 0
  m_StaticBatchRoot: {fileID: 0}
  m_ProbeAnchor: {fileID: 0}
  m_LightProbeVolumeOverride: {fileID: 0}
  m_ScaleInLightmap: 1
  m_PreserveUVs: 0
  m_IgnoreNormalsForChartDetection: 0
  m_ImportantGI: 0
  m_SelectedEditorRenderState: 3
  m_MinimumChartSize: 4
  m_AutoUVMaxDistance: 0.5
  m_AutoUVMaxAngle: 89
  m_LightmapParameters: {fileID: 0}
  m_SortingLayerID: 0
  m_SortingLayer: 0
  m_SortingOrder: 0
--- !u!65 &765412247
BoxCollider:
  m_ObjectHideFlags: 0
  m_PrefabParentObject: {fileID: 6572758, guid: d7a9e895e6da348328209b58b7889ae6,
    type: 2}
  m_PrefabInternal: {fileID: 98036471}
  m_GameObject: {fileID: 765412245}
  m_Material: {fileID: 0}
  m_IsTrigger: 0
  m_Enabled: 1
  serializedVersion: 2
  m_Size: {x: 1, y: 1, z: 1}
  m_Center: {x: 0, y: 0, z: 0}
--- !u!33 &765412248
MeshFilter:
  m_ObjectHideFlags: 0
  m_PrefabParentObject: {fileID: 3300506, guid: d7a9e895e6da348328209b58b7889ae6,
    type: 2}
  m_PrefabInternal: {fileID: 98036471}
  m_GameObject: {fileID: 765412245}
  m_Mesh: {fileID: 10202, guid: 0000000000000000e000000000000000, type: 0}
--- !u!4 &776186708
Transform:
  m_ObjectHideFlags: 0
  m_PrefabParentObject: {fileID: 495540, guid: d7a9e895e6da348328209b58b7889ae6, type: 2}
  m_PrefabInternal: {fileID: 621822579}
  m_GameObject: {fileID: 631220931}
  m_LocalRotation: {x: 0, y: 0, z: 0, w: 1}
  m_LocalPosition: {x: 0, y: 0, z: 0}
  m_LocalScale: {x: 1.3, y: 1.3, z: 0.001}
  m_Children: []
  m_Father: {fileID: 577085388}
  m_RootOrder: 3
  m_LocalEulerAnglesHint: {x: 0, y: 0, z: 0}
--- !u!1 &992687515
GameObject:
  m_ObjectHideFlags: 0
  m_PrefabParentObject: {fileID: 106802, guid: d7a9e895e6da348328209b58b7889ae6, type: 2}
  m_PrefabInternal: {fileID: 1000856876}
  serializedVersion: 5
  m_Component:
  - component: {fileID: 1375643291}
  - component: {fileID: 992687518}
  - component: {fileID: 992687517}
  - component: {fileID: 992687516}
  - component: {fileID: 658030695}
  m_Layer: 0
  m_Name: Cover (4)
  m_TagString: MenuItem
  m_Icon: {fileID: 0}
  m_NavMeshLayer: 0
  m_StaticEditorFlags: 0
  m_IsActive: 1
--- !u!23 &992687516
MeshRenderer:
  m_ObjectHideFlags: 0
  m_PrefabParentObject: {fileID: 2360886, guid: d7a9e895e6da348328209b58b7889ae6,
    type: 2}
  m_PrefabInternal: {fileID: 1000856876}
  m_GameObject: {fileID: 992687515}
  m_Enabled: 1
  m_CastShadows: 1
  m_ReceiveShadows: 1
  m_MotionVectors: 1
  m_LightProbeUsage: 1
  m_ReflectionProbeUsage: 1
  m_Materials:
  - {fileID: 2100000, guid: 71bd926423137436d9087743863fbc8a, type: 2}
  m_StaticBatchInfo:
    firstSubMesh: 0
    subMeshCount: 0
  m_StaticBatchRoot: {fileID: 0}
  m_ProbeAnchor: {fileID: 0}
  m_LightProbeVolumeOverride: {fileID: 0}
  m_ScaleInLightmap: 1
  m_PreserveUVs: 0
  m_IgnoreNormalsForChartDetection: 0
  m_ImportantGI: 0
  m_SelectedEditorRenderState: 3
  m_MinimumChartSize: 4
  m_AutoUVMaxDistance: 0.5
  m_AutoUVMaxAngle: 89
  m_LightmapParameters: {fileID: 0}
  m_SortingLayerID: 0
  m_SortingLayer: 0
  m_SortingOrder: 0
--- !u!65 &992687517
BoxCollider:
  m_ObjectHideFlags: 0
  m_PrefabParentObject: {fileID: 6572758, guid: d7a9e895e6da348328209b58b7889ae6,
    type: 2}
  m_PrefabInternal: {fileID: 1000856876}
  m_GameObject: {fileID: 992687515}
  m_Material: {fileID: 0}
  m_IsTrigger: 0
  m_Enabled: 1
  serializedVersion: 2
  m_Size: {x: 1, y: 1, z: 1}
  m_Center: {x: 0, y: 0, z: 0}
--- !u!33 &992687518
MeshFilter:
  m_ObjectHideFlags: 0
  m_PrefabParentObject: {fileID: 3300506, guid: d7a9e895e6da348328209b58b7889ae6,
    type: 2}
  m_PrefabInternal: {fileID: 1000856876}
  m_GameObject: {fileID: 992687515}
  m_Mesh: {fileID: 10202, guid: 0000000000000000e000000000000000, type: 0}
--- !u!1001 &1000856876
Prefab:
  m_ObjectHideFlags: 0
  serializedVersion: 2
  m_Modification:
    m_TransformParent: {fileID: 577085388}
    m_Modifications:
    - target: {fileID: 495540, guid: d7a9e895e6da348328209b58b7889ae6, type: 2}
      propertyPath: m_LocalPosition.x
      value: 0
      objectReference: {fileID: 0}
    - target: {fileID: 495540, guid: d7a9e895e6da348328209b58b7889ae6, type: 2}
      propertyPath: m_LocalPosition.y
      value: 0
      objectReference: {fileID: 0}
    - target: {fileID: 495540, guid: d7a9e895e6da348328209b58b7889ae6, type: 2}
      propertyPath: m_LocalPosition.z
      value: 0
      objectReference: {fileID: 0}
    - target: {fileID: 495540, guid: d7a9e895e6da348328209b58b7889ae6, type: 2}
      propertyPath: m_LocalRotation.x
      value: 0
      objectReference: {fileID: 0}
    - target: {fileID: 495540, guid: d7a9e895e6da348328209b58b7889ae6, type: 2}
      propertyPath: m_LocalRotation.y
      value: 0
      objectReference: {fileID: 0}
    - target: {fileID: 495540, guid: d7a9e895e6da348328209b58b7889ae6, type: 2}
      propertyPath: m_LocalRotation.z
      value: 0
      objectReference: {fileID: 0}
    - target: {fileID: 495540, guid: d7a9e895e6da348328209b58b7889ae6, type: 2}
      propertyPath: m_LocalRotation.w
      value: 1
      objectReference: {fileID: 0}
    - target: {fileID: 495540, guid: d7a9e895e6da348328209b58b7889ae6, type: 2}
      propertyPath: m_RootOrder
      value: 1
      objectReference: {fileID: 0}
    - target: {fileID: 106802, guid: d7a9e895e6da348328209b58b7889ae6, type: 2}
      propertyPath: m_Name
      value: Cover (4)
      objectReference: {fileID: 0}
    - target: {fileID: 106802, guid: d7a9e895e6da348328209b58b7889ae6, type: 2}
      propertyPath: m_TagString
      value: MenuItem
      objectReference: {fileID: 0}
    - target: {fileID: 2360886, guid: d7a9e895e6da348328209b58b7889ae6, type: 2}
      propertyPath: m_Materials.Array.data[0]
      value: 
      objectReference: {fileID: 2100000, guid: 71bd926423137436d9087743863fbc8a, type: 2}
    - target: {fileID: 495540, guid: d7a9e895e6da348328209b58b7889ae6, type: 2}
      propertyPath: m_LocalScale.x
      value: 1.29999995
      objectReference: {fileID: 0}
    - target: {fileID: 495540, guid: d7a9e895e6da348328209b58b7889ae6, type: 2}
      propertyPath: m_LocalScale.y
      value: 1.29999995
      objectReference: {fileID: 0}
    m_RemovedComponents: []
  m_ParentPrefab: {fileID: 100100000, guid: d7a9e895e6da348328209b58b7889ae6, type: 2}
  m_RootGameObject: {fileID: 992687515}
  m_IsPrefabParent: 0
--- !u!114 &1121430694
MonoBehaviour:
  m_ObjectHideFlags: 0
  m_PrefabParentObject: {fileID: 11431726, guid: d7a9e895e6da348328209b58b7889ae6,
    type: 2}
  m_PrefabInternal: {fileID: 1177757491}
  m_GameObject: {fileID: 345837631}
  m_Enabled: 1
  m_EditorHideFlags: 0
  m_Script: {fileID: 11500000, guid: 3160ba9731a344d29af7fcc2db11ebb5, type: 3}
  m_Name: 
  m_EditorClassIdentifier: 
--- !u!114 &1136611345
MonoBehaviour:
  m_ObjectHideFlags: 0
  m_PrefabParentObject: {fileID: 11431726, guid: d7a9e895e6da348328209b58b7889ae6,
    type: 2}
  m_PrefabInternal: {fileID: 98036471}
  m_GameObject: {fileID: 765412245}
  m_Enabled: 1
  m_EditorHideFlags: 0
  m_Script: {fileID: 11500000, guid: 3160ba9731a344d29af7fcc2db11ebb5, type: 3}
  m_Name: 
  m_EditorClassIdentifier: 
--- !u!1001 &1141709533
Prefab:
  m_ObjectHideFlags: 0
  serializedVersion: 2
  m_Modification:
    m_TransformParent: {fileID: 1640265599}
    m_Modifications:
    - target: {fileID: 22447586, guid: b2d29c03302dc47b8ac2faf369b93484, type: 2}
      propertyPath: m_LocalPosition.x
      value: 0
      objectReference: {fileID: 0}
    - target: {fileID: 22447586, guid: b2d29c03302dc47b8ac2faf369b93484, type: 2}
      propertyPath: m_LocalPosition.y
      value: 0
      objectReference: {fileID: 0}
    - target: {fileID: 22447586, guid: b2d29c03302dc47b8ac2faf369b93484, type: 2}
      propertyPath: m_LocalPosition.z
      value: 0
      objectReference: {fileID: 0}
    - target: {fileID: 22447586, guid: b2d29c03302dc47b8ac2faf369b93484, type: 2}
      propertyPath: m_LocalRotation.x
      value: 0
      objectReference: {fileID: 0}
    - target: {fileID: 22447586, guid: b2d29c03302dc47b8ac2faf369b93484, type: 2}
      propertyPath: m_LocalRotation.y
      value: 0
      objectReference: {fileID: 0}
    - target: {fileID: 22447586, guid: b2d29c03302dc47b8ac2faf369b93484, type: 2}
      propertyPath: m_LocalRotation.z
      value: 0
      objectReference: {fileID: 0}
    - target: {fileID: 22447586, guid: b2d29c03302dc47b8ac2faf369b93484, type: 2}
      propertyPath: m_LocalRotation.w
      value: 1
      objectReference: {fileID: 0}
    - target: {fileID: 22447586, guid: b2d29c03302dc47b8ac2faf369b93484, type: 2}
      propertyPath: m_RootOrder
      value: 0
      objectReference: {fileID: 0}
    - target: {fileID: 22447586, guid: b2d29c03302dc47b8ac2faf369b93484, type: 2}
      propertyPath: m_AnchoredPosition.x
      value: 200
      objectReference: {fileID: 0}
    - target: {fileID: 22447586, guid: b2d29c03302dc47b8ac2faf369b93484, type: 2}
      propertyPath: m_AnchoredPosition.y
      value: -100
      objectReference: {fileID: 0}
    - target: {fileID: 22447586, guid: b2d29c03302dc47b8ac2faf369b93484, type: 2}
      propertyPath: m_SizeDelta.x
      value: 400
      objectReference: {fileID: 0}
    - target: {fileID: 22447586, guid: b2d29c03302dc47b8ac2faf369b93484, type: 2}
      propertyPath: m_SizeDelta.y
      value: 200
      objectReference: {fileID: 0}
    - target: {fileID: 22447586, guid: b2d29c03302dc47b8ac2faf369b93484, type: 2}
      propertyPath: m_AnchorMin.x
      value: 0
      objectReference: {fileID: 0}
    - target: {fileID: 22447586, guid: b2d29c03302dc47b8ac2faf369b93484, type: 2}
      propertyPath: m_AnchorMin.y
      value: 1
      objectReference: {fileID: 0}
    - target: {fileID: 22447586, guid: b2d29c03302dc47b8ac2faf369b93484, type: 2}
      propertyPath: m_AnchorMax.x
      value: 0
      objectReference: {fileID: 0}
    - target: {fileID: 22447586, guid: b2d29c03302dc47b8ac2faf369b93484, type: 2}
      propertyPath: m_AnchorMax.y
      value: 1
      objectReference: {fileID: 0}
    - target: {fileID: 22447586, guid: b2d29c03302dc47b8ac2faf369b93484, type: 2}
      propertyPath: m_Pivot.x
      value: .5
      objectReference: {fileID: 0}
    - target: {fileID: 22447586, guid: b2d29c03302dc47b8ac2faf369b93484, type: 2}
      propertyPath: m_Pivot.y
      value: .5
      objectReference: {fileID: 0}
    - target: {fileID: 11477482, guid: b2d29c03302dc47b8ac2faf369b93484, type: 2}
      propertyPath: m_Text
      value: 'Flat Menu Example


        Menu Rotation: 0

        Distance Between Menus: 1.5

        Swipes: Enabled

        Flicks: Enabled

        Flick Type: Inertia

        Lock To Closest: true'
      objectReference: {fileID: 0}
    - target: {fileID: 11403426, guid: b2d29c03302dc47b8ac2faf369b93484, type: 2}
      propertyPath: m_Text
      value: 'Flat Menu Example


        Menu Rotation: 0

        Distance Between Menus: 1.5

        Swipes: Enabled

        Flicks: Enabled

        Lock To Closest: Enabled'
      objectReference: {fileID: 0}
    - target: {fileID: 11403426, guid: b2d29c03302dc47b8ac2faf369b93484, type: 2}
      propertyPath: m_RaycastTarget
      value: 0
      objectReference: {fileID: 0}
    m_RemovedComponents: []
  m_ParentPrefab: {fileID: 100100000, guid: b2d29c03302dc47b8ac2faf369b93484, type: 2}
  m_RootGameObject: {fileID: 1447083672}
  m_IsPrefabParent: 0
--- !u!224 &1141709534
RectTransform:
  m_ObjectHideFlags: 0
  m_PrefabParentObject: {fileID: 22421158, guid: b2d29c03302dc47b8ac2faf369b93484,
    type: 2}
  m_PrefabInternal: {fileID: 1141709533}
  m_GameObject: {fileID: 1447083672}
  m_LocalRotation: {x: 0, y: 0, z: 0, w: 1}
  m_LocalPosition: {x: 0, y: 0, z: 0}
  m_LocalScale: {x: 1, y: 1, z: 1}
  m_Children: []
  m_Father: {fileID: 1640265599}
  m_RootOrder: 0
  m_LocalEulerAnglesHint: {x: 0, y: 0, z: 0}
  m_AnchorMin: {x: 0, y: 1}
  m_AnchorMax: {x: 0, y: 1}
  m_AnchoredPosition: {x: 200, y: -100}
  m_SizeDelta: {x: 400, y: 200}
  m_Pivot: {x: 0.5, y: 0.5}
--- !u!1001 &1177757491
Prefab:
  m_ObjectHideFlags: 0
  serializedVersion: 2
  m_Modification:
    m_TransformParent: {fileID: 577085388}
    m_Modifications:
    - target: {fileID: 495540, guid: d7a9e895e6da348328209b58b7889ae6, type: 2}
      propertyPath: m_LocalPosition.x
      value: 0
      objectReference: {fileID: 0}
    - target: {fileID: 495540, guid: d7a9e895e6da348328209b58b7889ae6, type: 2}
      propertyPath: m_LocalPosition.y
      value: 0
      objectReference: {fileID: 0}
    - target: {fileID: 495540, guid: d7a9e895e6da348328209b58b7889ae6, type: 2}
      propertyPath: m_LocalPosition.z
      value: 0
      objectReference: {fileID: 0}
    - target: {fileID: 495540, guid: d7a9e895e6da348328209b58b7889ae6, type: 2}
      propertyPath: m_LocalRotation.x
      value: 0
      objectReference: {fileID: 0}
    - target: {fileID: 495540, guid: d7a9e895e6da348328209b58b7889ae6, type: 2}
      propertyPath: m_LocalRotation.y
      value: 0
      objectReference: {fileID: 0}
    - target: {fileID: 495540, guid: d7a9e895e6da348328209b58b7889ae6, type: 2}
      propertyPath: m_LocalRotation.z
      value: 0
      objectReference: {fileID: 0}
    - target: {fileID: 495540, guid: d7a9e895e6da348328209b58b7889ae6, type: 2}
      propertyPath: m_LocalRotation.w
      value: 1
      objectReference: {fileID: 0}
    - target: {fileID: 495540, guid: d7a9e895e6da348328209b58b7889ae6, type: 2}
      propertyPath: m_RootOrder
      value: 2
      objectReference: {fileID: 0}
    - target: {fileID: 106802, guid: d7a9e895e6da348328209b58b7889ae6, type: 2}
      propertyPath: m_Name
      value: Cover (2)
      objectReference: {fileID: 0}
    - target: {fileID: 106802, guid: d7a9e895e6da348328209b58b7889ae6, type: 2}
      propertyPath: m_TagString
      value: MenuItem
      objectReference: {fileID: 0}
    - target: {fileID: 2360886, guid: d7a9e895e6da348328209b58b7889ae6, type: 2}
      propertyPath: m_Materials.Array.data[0]
      value: 
      objectReference: {fileID: 2100000, guid: 7590568b04edb48bb80021b140c0df4c, type: 2}
    - target: {fileID: 495540, guid: d7a9e895e6da348328209b58b7889ae6, type: 2}
      propertyPath: m_LocalScale.x
      value: 1.29999995
      objectReference: {fileID: 0}
    - target: {fileID: 495540, guid: d7a9e895e6da348328209b58b7889ae6, type: 2}
      propertyPath: m_LocalScale.y
      value: 1.29999995
      objectReference: {fileID: 0}
    m_RemovedComponents: []
  m_ParentPrefab: {fileID: 100100000, guid: d7a9e895e6da348328209b58b7889ae6, type: 2}
  m_RootGameObject: {fileID: 345837631}
  m_IsPrefabParent: 0
--- !u!1 &1207617610
GameObject:
  m_ObjectHideFlags: 0
  m_PrefabParentObject: {fileID: 106802, guid: d7a9e895e6da348328209b58b7889ae6, type: 2}
  m_PrefabInternal: {fileID: 10226140}
  serializedVersion: 5
  m_Component:
  - component: {fileID: 721448914}
  - component: {fileID: 1207617613}
  - component: {fileID: 1207617612}
  - component: {fileID: 1207617611}
  - component: {fileID: 1347007604}
  m_Layer: 0
  m_Name: Cover (1)
  m_TagString: MenuItem
  m_Icon: {fileID: 0}
  m_NavMeshLayer: 0
  m_StaticEditorFlags: 0
  m_IsActive: 1
--- !u!23 &1207617611
MeshRenderer:
  m_ObjectHideFlags: 0
  m_PrefabParentObject: {fileID: 2360886, guid: d7a9e895e6da348328209b58b7889ae6,
    type: 2}
  m_PrefabInternal: {fileID: 10226140}
  m_GameObject: {fileID: 1207617610}
  m_Enabled: 1
  m_CastShadows: 1
  m_ReceiveShadows: 1
  m_MotionVectors: 1
  m_LightProbeUsage: 1
  m_ReflectionProbeUsage: 1
  m_Materials:
  - {fileID: 2100000, guid: 310255932d18e4c339a532537a012e6f, type: 2}
  m_StaticBatchInfo:
    firstSubMesh: 0
    subMeshCount: 0
  m_StaticBatchRoot: {fileID: 0}
  m_ProbeAnchor: {fileID: 0}
  m_LightProbeVolumeOverride: {fileID: 0}
  m_ScaleInLightmap: 1
  m_PreserveUVs: 0
  m_IgnoreNormalsForChartDetection: 0
  m_ImportantGI: 0
  m_SelectedEditorRenderState: 3
  m_MinimumChartSize: 4
  m_AutoUVMaxDistance: 0.5
  m_AutoUVMaxAngle: 89
  m_LightmapParameters: {fileID: 0}
  m_SortingLayerID: 0
  m_SortingLayer: 0
  m_SortingOrder: 0
--- !u!65 &1207617612
BoxCollider:
  m_ObjectHideFlags: 0
  m_PrefabParentObject: {fileID: 6572758, guid: d7a9e895e6da348328209b58b7889ae6,
    type: 2}
  m_PrefabInternal: {fileID: 10226140}
  m_GameObject: {fileID: 1207617610}
  m_Material: {fileID: 0}
  m_IsTrigger: 0
  m_Enabled: 1
  serializedVersion: 2
  m_Size: {x: 1, y: 1, z: 1}
  m_Center: {x: 0, y: 0, z: 0}
--- !u!33 &1207617613
MeshFilter:
  m_ObjectHideFlags: 0
  m_PrefabParentObject: {fileID: 3300506, guid: d7a9e895e6da348328209b58b7889ae6,
    type: 2}
  m_PrefabInternal: {fileID: 10226140}
  m_GameObject: {fileID: 1207617610}
  m_Mesh: {fileID: 10202, guid: 0000000000000000e000000000000000, type: 0}
--- !u!1 &1312490280
GameObject:
  m_ObjectHideFlags: 0
  m_PrefabParentObject: {fileID: 122182, guid: d4a167950a10a4c72a4b29b39f8ccb2d, type: 2}
  m_PrefabInternal: {fileID: 1464684916}
  serializedVersion: 5
  m_Component:
  - component: {fileID: 1312490282}
  - component: {fileID: 1312490281}
  m_Layer: 0
  m_Name: Scene Switcher
  m_TagString: Untagged
  m_Icon: {fileID: 0}
  m_NavMeshLayer: 0
  m_StaticEditorFlags: 0
  m_IsActive: 1
--- !u!114 &1312490281
MonoBehaviour:
  m_ObjectHideFlags: 0
  m_PrefabParentObject: {fileID: 11479286, guid: d4a167950a10a4c72a4b29b39f8ccb2d,
    type: 2}
  m_PrefabInternal: {fileID: 1464684916}
  m_GameObject: {fileID: 1312490280}
  m_Enabled: 1
  m_EditorHideFlags: 0
  m_Script: {fileID: 11500000, guid: cbf0320d1e1e04e229dac78efbd4c7a7, type: 3}
  m_Name: 
  m_EditorClassIdentifier: 
--- !u!4 &1312490282
Transform:
  m_ObjectHideFlags: 0
  m_PrefabParentObject: {fileID: 434762, guid: d4a167950a10a4c72a4b29b39f8ccb2d, type: 2}
  m_PrefabInternal: {fileID: 1464684916}
  m_GameObject: {fileID: 1312490280}
  m_LocalRotation: {x: 0, y: 0, z: 0, w: 1}
  m_LocalPosition: {x: 0, y: 0, z: -0.00049999997}
  m_LocalScale: {x: 1, y: 1, z: 1}
  m_Children: []
  m_Father: {fileID: 0}
  m_RootOrder: 5
  m_LocalEulerAnglesHint: {x: 0, y: 0, z: 0}
--- !u!114 &1347007604
MonoBehaviour:
  m_ObjectHideFlags: 0
  m_PrefabParentObject: {fileID: 11431726, guid: d7a9e895e6da348328209b58b7889ae6,
    type: 2}
  m_PrefabInternal: {fileID: 10226140}
  m_GameObject: {fileID: 1207617610}
  m_Enabled: 1
  m_EditorHideFlags: 0
  m_Script: {fileID: 11500000, guid: 3160ba9731a344d29af7fcc2db11ebb5, type: 3}
  m_Name: 
  m_EditorClassIdentifier: 
--- !u!4 &1349214177
Transform:
  m_ObjectHideFlags: 0
  m_PrefabParentObject: {fileID: 495540, guid: d7a9e895e6da348328209b58b7889ae6, type: 2}
  m_PrefabInternal: {fileID: 1177757491}
  m_GameObject: {fileID: 345837631}
  m_LocalRotation: {x: 0, y: 0, z: 0, w: 1}
  m_LocalPosition: {x: 0, y: 0, z: 0}
  m_LocalScale: {x: 1.3, y: 1.3, z: 0.001}
  m_Children: []
  m_Father: {fileID: 577085388}
  m_RootOrder: 2
  m_LocalEulerAnglesHint: {x: 0, y: 0, z: 0}
--- !u!4 &1375643291
Transform:
  m_ObjectHideFlags: 0
  m_PrefabParentObject: {fileID: 495540, guid: d7a9e895e6da348328209b58b7889ae6, type: 2}
  m_PrefabInternal: {fileID: 1000856876}
  m_GameObject: {fileID: 992687515}
  m_LocalRotation: {x: 0, y: 0, z: 0, w: 1}
  m_LocalPosition: {x: 0, y: 0, z: 0}
  m_LocalScale: {x: 1.3, y: 1.3, z: 0.001}
  m_Children: []
  m_Father: {fileID: 577085388}
  m_RootOrder: 1
  m_LocalEulerAnglesHint: {x: 0, y: 0, z: 0}
--- !u!1 &1447083672
GameObject:
  m_ObjectHideFlags: 0
  m_PrefabParentObject: {fileID: 137754, guid: b2d29c03302dc47b8ac2faf369b93484, type: 2}
  m_PrefabInternal: {fileID: 1141709533}
  serializedVersion: 5
  m_Component:
  - component: {fileID: 1141709534}
  - component: {fileID: 1447083674}
  - component: {fileID: 1447083673}
  m_Layer: 5
  m_Name: Info Text
  m_TagString: Untagged
  m_Icon: {fileID: 0}
  m_NavMeshLayer: 0
  m_StaticEditorFlags: 0
  m_IsActive: 1
--- !u!114 &1447083673
MonoBehaviour:
  m_ObjectHideFlags: 0
  m_PrefabParentObject: {fileID: 11403426, guid: b2d29c03302dc47b8ac2faf369b93484,
    type: 2}
  m_PrefabInternal: {fileID: 1141709533}
  m_GameObject: {fileID: 1447083672}
  m_Enabled: 1
  m_EditorHideFlags: 0
  m_Script: {fileID: 708705254, guid: f5f67c52d1564df4a8936ccd202a3bd8, type: 3}
  m_Name: 
  m_EditorClassIdentifier: 
  m_Material: {fileID: 0}
  m_Color: {r: 0.19607843, g: 0.19607843, b: 0.19607843, a: 1}
  m_RaycastTarget: 0
  m_OnCullStateChanged:
    m_PersistentCalls:
      m_Calls: []
    m_TypeName: UnityEngine.UI.MaskableGraphic+CullStateChangedEvent, UnityEngine.UI,
      Version=1.0.0.0, Culture=neutral, PublicKeyToken=null
  m_FontData:
    m_Font: {fileID: 10102, guid: 0000000000000000e000000000000000, type: 0}
    m_FontSize: 16
    m_FontStyle: 0
    m_BestFit: 0
    m_MinSize: 10
    m_MaxSize: 40
    m_Alignment: 0
    m_AlignByGeometry: 0
    m_RichText: 1
    m_HorizontalOverflow: 0
    m_VerticalOverflow: 0
    m_LineSpacing: 1
  m_Text: 'Flat Menu Example


    Menu Rotation: 0

    Distance Between Menus: 1.5

    Swipes: Enabled

    Flicks: Enabled

    Lock To Closest: Enabled'
--- !u!222 &1447083674
CanvasRenderer:
  m_ObjectHideFlags: 0
  m_PrefabParentObject: {fileID: 22252190, guid: b2d29c03302dc47b8ac2faf369b93484,
    type: 2}
  m_PrefabInternal: {fileID: 1141709533}
  m_GameObject: {fileID: 1447083672}
--- !u!1001 &1464684916
Prefab:
  m_ObjectHideFlags: 0
  serializedVersion: 2
  m_Modification:
    m_TransformParent: {fileID: 0}
    m_Modifications:
    - target: {fileID: 434762, guid: d4a167950a10a4c72a4b29b39f8ccb2d, type: 2}
      propertyPath: m_LocalPosition.x
      value: 0
      objectReference: {fileID: 0}
    - target: {fileID: 434762, guid: d4a167950a10a4c72a4b29b39f8ccb2d, type: 2}
      propertyPath: m_LocalPosition.y
      value: 0
      objectReference: {fileID: 0}
    - target: {fileID: 434762, guid: d4a167950a10a4c72a4b29b39f8ccb2d, type: 2}
      propertyPath: m_LocalPosition.z
      value: -.000499999966
      objectReference: {fileID: 0}
    - target: {fileID: 434762, guid: d4a167950a10a4c72a4b29b39f8ccb2d, type: 2}
      propertyPath: m_LocalRotation.x
      value: 0
      objectReference: {fileID: 0}
    - target: {fileID: 434762, guid: d4a167950a10a4c72a4b29b39f8ccb2d, type: 2}
      propertyPath: m_LocalRotation.y
      value: 0
      objectReference: {fileID: 0}
    - target: {fileID: 434762, guid: d4a167950a10a4c72a4b29b39f8ccb2d, type: 2}
      propertyPath: m_LocalRotation.z
      value: 0
      objectReference: {fileID: 0}
    - target: {fileID: 434762, guid: d4a167950a10a4c72a4b29b39f8ccb2d, type: 2}
      propertyPath: m_LocalRotation.w
      value: 1
      objectReference: {fileID: 0}
    - target: {fileID: 434762, guid: d4a167950a10a4c72a4b29b39f8ccb2d, type: 2}
      propertyPath: m_RootOrder
      value: 5
      objectReference: {fileID: 0}
    - target: {fileID: 11479286, guid: d4a167950a10a4c72a4b29b39f8ccb2d, type: 2}
      propertyPath: sceneToLoad
      value: Multiple Menu Scene
      objectReference: {fileID: 0}
    m_RemovedComponents: []
  m_ParentPrefab: {fileID: 100100000, guid: d4a167950a10a4c72a4b29b39f8ccb2d, type: 2}
  m_RootGameObject: {fileID: 1312490280}
  m_IsPrefabParent: 0
--- !u!1 &1640265598
GameObject:
  m_ObjectHideFlags: 0
  m_PrefabParentObject: {fileID: 0}
  m_PrefabInternal: {fileID: 0}
  serializedVersion: 5
  m_Component:
  - component: {fileID: 1640265599}
  - component: {fileID: 1640265602}
  - component: {fileID: 1640265601}
  m_Layer: 5
  m_Name: Canvas
  m_TagString: Untagged
  m_Icon: {fileID: 0}
  m_NavMeshLayer: 0
  m_StaticEditorFlags: 0
  m_IsActive: 1
--- !u!224 &1640265599
RectTransform:
  m_ObjectHideFlags: 0
  m_PrefabParentObject: {fileID: 0}
  m_PrefabInternal: {fileID: 0}
  m_GameObject: {fileID: 1640265598}
  m_LocalRotation: {x: 0, y: 0, z: 0, w: 1}
  m_LocalPosition: {x: 0, y: 0, z: 0}
  m_LocalScale: {x: 0, y: 0, z: 0}
  m_Children:
  - {fileID: 1141709534}
  - {fileID: 265749493}
  m_Father: {fileID: 0}
  m_RootOrder: 3
  m_LocalEulerAnglesHint: {x: 0, y: 0, z: 0}
  m_AnchorMin: {x: 0, y: 0}
  m_AnchorMax: {x: 0, y: 0}
  m_AnchoredPosition: {x: 0, y: 0}
  m_SizeDelta: {x: 0, y: 0}
  m_Pivot: {x: 0, y: 0}
--- !u!114 &1640265601
MonoBehaviour:
  m_ObjectHideFlags: 0
  m_PrefabParentObject: {fileID: 0}
  m_PrefabInternal: {fileID: 0}
  m_GameObject: {fileID: 1640265598}
  m_Enabled: 1
  m_EditorHideFlags: 0
  m_Script: {fileID: 1980459831, guid: f5f67c52d1564df4a8936ccd202a3bd8, type: 3}
  m_Name: 
  m_EditorClassIdentifier: 
  m_UiScaleMode: 0
  m_ReferencePixelsPerUnit: 100
  m_ScaleFactor: 1
  m_ReferenceResolution: {x: 800, y: 600}
  m_ScreenMatchMode: 0
  m_MatchWidthOrHeight: 0
  m_PhysicalUnit: 3
  m_FallbackScreenDPI: 96
  m_DefaultSpriteDPI: 96
  m_DynamicPixelsPerUnit: 1
--- !u!223 &1640265602
Canvas:
  m_ObjectHideFlags: 0
  m_PrefabParentObject: {fileID: 0}
  m_PrefabInternal: {fileID: 0}
  m_GameObject: {fileID: 1640265598}
  m_Enabled: 1
  serializedVersion: 3
  m_RenderMode: 0
  m_Camera: {fileID: 0}
  m_PlaneDistance: 100
  m_PixelPerfect: 0
  m_ReceivesEvents: 1
  m_OverrideSorting: 0
  m_OverridePixelPerfect: 0
  m_SortingBucketNormalizedSize: 0
  m_AdditionalShaderChannelsFlag: 25
  m_SortingLayerID: 0
  m_SortingOrder: 0
  m_TargetDisplay: 0
--- !u!1 &1794158581
GameObject:
  m_ObjectHideFlags: 0
  m_PrefabParentObject: {fileID: 0}
  m_PrefabInternal: {fileID: 0}
  serializedVersion: 5
  m_Component:
  - component: {fileID: 1794158585}
  - component: {fileID: 1794158584}
  - component: {fileID: 1794158583}
  - component: {fileID: 1794158582}
  m_Layer: 0
  m_Name: EventSystem
  m_TagString: Untagged
  m_Icon: {fileID: 0}
  m_NavMeshLayer: 0
  m_StaticEditorFlags: 0
  m_IsActive: 1
--- !u!114 &1794158582
MonoBehaviour:
  m_ObjectHideFlags: 0
  m_PrefabParentObject: {fileID: 0}
  m_PrefabInternal: {fileID: 0}
  m_GameObject: {fileID: 1794158581}
  m_Enabled: 1
  m_EditorHideFlags: 0
  m_Script: {fileID: 1997211142, guid: f5f67c52d1564df4a8936ccd202a3bd8, type: 3}
  m_Name: 
  m_EditorClassIdentifier: 
  m_ForceModuleActive: 0
--- !u!114 &1794158583
MonoBehaviour:
  m_ObjectHideFlags: 0
  m_PrefabParentObject: {fileID: 0}
  m_PrefabInternal: {fileID: 0}
  m_GameObject: {fileID: 1794158581}
  m_Enabled: 1
  m_EditorHideFlags: 0
  m_Script: {fileID: 1077351063, guid: f5f67c52d1564df4a8936ccd202a3bd8, type: 3}
  m_Name: 
  m_EditorClassIdentifier: 
  m_HorizontalAxis: Horizontal
  m_VerticalAxis: Vertical
  m_SubmitButton: Submit
  m_CancelButton: Cancel
  m_InputActionsPerSecond: 10
  m_RepeatDelay: 0.5
  m_ForceModuleActive: 0
--- !u!114 &1794158584
MonoBehaviour:
  m_ObjectHideFlags: 0
  m_PrefabParentObject: {fileID: 0}
  m_PrefabInternal: {fileID: 0}
  m_GameObject: {fileID: 1794158581}
  m_Enabled: 1
  m_EditorHideFlags: 0
  m_Script: {fileID: -619905303, guid: f5f67c52d1564df4a8936ccd202a3bd8, type: 3}
  m_Name: 
  m_EditorClassIdentifier: 
  m_FirstSelected: {fileID: 0}
  m_sendNavigationEvents: 1
  m_DragThreshold: 5
--- !u!4 &1794158585
Transform:
  m_ObjectHideFlags: 0
  m_PrefabParentObject: {fileID: 0}
  m_PrefabInternal: {fileID: 0}
  m_GameObject: {fileID: 1794158581}
  m_LocalRotation: {x: 0, y: 0, z: 0, w: 1}
  m_LocalPosition: {x: 0, y: 0, z: 0}
  m_LocalScale: {x: 1, y: 1, z: 1}
  m_Children: []
  m_Father: {fileID: 0}
  m_RootOrder: 4
  m_LocalEulerAnglesHint: {x: 0, y: 0, z: 0}
--- !u!4 &1807605613
Transform:
  m_ObjectHideFlags: 0
  m_PrefabParentObject: {fileID: 495540, guid: d7a9e895e6da348328209b58b7889ae6, type: 2}
  m_PrefabInternal: {fileID: 98036471}
  m_GameObject: {fileID: 765412245}
  m_LocalRotation: {x: 0, y: 0, z: 0, w: 1}
  m_LocalPosition: {x: 0, y: 0, z: 0}
  m_LocalScale: {x: 1.3, y: 1.3, z: 0.001}
  m_Children: []
  m_Father: {fileID: 577085388}
  m_RootOrder: 4
  m_LocalEulerAnglesHint: {x: 0, y: 0, z: 0}
--- !u!114 &2020438286
MonoBehaviour:
  m_ObjectHideFlags: 0
  m_PrefabParentObject: {fileID: 11431726, guid: d7a9e895e6da348328209b58b7889ae6,
    type: 2}
  m_PrefabInternal: {fileID: 621822579}
  m_GameObject: {fileID: 631220931}
  m_Enabled: 1
  m_EditorHideFlags: 0
  m_Script: {fileID: 11500000, guid: 3160ba9731a344d29af7fcc2db11ebb5, type: 3}
  m_Name: 
  m_EditorClassIdentifier: 
